Project 1: Wrangling, Exploration, Visualization
…
Since I changed the datatype of the Date in the avocado data set I had to change the format of date in the stock data set to match in order to make the join on their respective dates. By doing an inner join we lost all the days of the week other than Mondays in the stocks data set as well as the dates that were not included in the avocado data set. We are left with our data for 169 mondays of each stock in the S&P500 and that amounts to 71564 observations. Note, this is less than 500 * 169 = 84500 since the avocado dates extend a bit past our data set for stocks and some companies in our data set have less observations that others due to them being moved out of or coming in later to the S&P500.

Truthfully, I think I would rather have joined in another way that had the data from avocado in its own row for each date similar to how the companies have their own row. I was not sure how to accomplish this since we did need to have a join and that seems more like an append to the bottom of another data set. Instead, we have duplicated data for avocados in every row for every company at a certain date but it should work fine for our purposes.

Wrangling

stockacado %>% group_by(Name) %>% count %>% arrange(desc(n))

## # A tibble: 505 x 2
## # Groups:   Name [505]
##    Name      n
##    <fct> <int>
##  1 A       144
##  2 AAL     144
##  3 AAP     144
##  4 AAPL    144
##  5 ABBV    144
##  6 ABC     144
##  7 ABT     144
##  8 ACN     144
##  9 ADBE    144
## 10 ADI     144
## #  with 495 more rows

Note, 144 seems to be the max amount of days we have data for on a stock and avocados.

stockacado %>% group_by(Name) %>% count %>% arrange(n)

## # A tibble: 505 x 2
## # Groups:   Name [505]
##    Name      n
##    <fct> <int>
##  1 APTV      6
##  2 DWDP     19
##  3 BHF      26
##  4 BHGE     28
##  5 DXC      40
##  6 HLT      50
##  7 EVHC     53
##  8 FTV      73
##  9 UA       84
## 10 WLTW     95
## #  with 495 more rows
…
Lets remove any companies that we dont have data for all of our days.

outliers <- stockacado %>% group_by(Name) %>% count %>% filter(n < 
    144)
stockacado <- anti_join(stockacado, outliers)

stockacado %>% group_by(Date) %>% count

## # A tibble: 144 x 2
## # Groups:   Date [144]
##    Date           n
##    <date>     <int>
##  1 2015-01-05   486
##  2 2015-01-12   486
##  3 2015-01-26   486
##  4 2015-02-02   486
##  5 2015-02-09   486
##  6 2015-02-23   486
##  7 2015-03-02   486
##  8 2015-03-09   486
##  9 2015-03-16   486
## 10 2015-03-23   486
## #  with 134 more rows

Do any of the tickers from our company names share 3 of the same letters with avocado?

str_subset(unique(stockacado$Name), "[AVCDO]{3}")

## [1] "COO"  "DOV"  "DVA"  "NVDA" "PDCO"

Dont think any of these companies are associated with Avocados production..

Lets look at Walmarts price change percent along side the percent change in avacado prices.

stockacado %>% filter(Name == "WMT") %>% summarise(weeklyPctChange = pct_change(open), 
    avoPct = avocadoChg)

## # A tibble: 144 x 2
##    weeklyPctChange   avoPct
##              <dbl>    <dbl>
##  1        NA       NA      
##  2         0.0425   0.0533 
##  3        -0.0118   0.00433
##  4        -0.0399  -0.107  
##  5         0.0257   0.0509 
##  6        -0.0297  -0.0180 
##  7        -0.00592 -0.0379 
##  8        -0.0155   0.0374 
##  9        -0.00170  0.0234 
## 10         0.00885 -0.0307 
## #  with 134 more rows
…
GPN
107.9881

ADBE
106.8544

BA
105.1149

stockacado %>% group_by(Name) %>% na.omit() %>% summarise(corAll = cor(pct_change, 
    avocadoChg)) %>% arrange(desc(corAll))

## # A tibble: 486 x 2
##    Name  corAll
##    <fct>  <dbl>
##  1 HSY    0.263
##  2 CCL    0.259
##  3 RCL    0.237
##  4 AKAM   0.233
##  5 K      0.225
##  6 DHI    0.220
##  7 UPS    0.215
##  8 LMT    0.214
##  9 NVDA   0.214
## 10 MKC    0.211
## #  with 476 more rows

Even the highest correlation values between price change of avocados dont really imply a relation..

What about negative correlations?

stockacado %>% group_by(Name) %>% na.omit() %>% summarise(corAll = cor(pct_change, 
    avocadoChg)) %>% arrange(corAll)

## # A tibble: 486 x 2
##    Name  corAll
##    <fct>  <dbl>
##  1 AVY   -0.165
##  2 HCA   -0.163
##  3 FAST  -0.139
##  4 M     -0.120
##  5 HP    -0.115
##  6 OKE   -0.115
##  7 MRO   -0.114
##  8 NEM   -0.113
##  9 NOV   -0.109
## 10 MYL   -0.102
## #  with 476 more rows

Again not really..

Lets look at the relations between just the price of avocados and price of stocks in the S&P500

stockacado %>% group_by(Name) %>% summarise(cor = cor(open, avocadoAvg)) %>% 
    arrange(desc(cor))

## # A tibble: 486 x 2
##    Name    cor
##    <fct> <dbl>
##  1 COO   0.665
##  2 SYMC  0.660
##  3 EA    0.652
##  4 EXPE  0.630
##  5 AON   0.627
##  6 IQV   0.613
##  7 AMT   0.607
##  8 BLL   0.604
##  9 PKG   0.600
## 10 ESS   0.592
## #  with 476 more rows

This looks like some decently strong correlations between the price of avocados and some companies in the S&P 500!

Lets look at negative side.

stockacado %>% group_by(Name) %>% summarise(cor = cor(open, avocadoAvg)) %>% 
    arrange(cor)

## # A tibble: 486 x 2
##    Name     cor
##    <fct>  <dbl>
##  1 KR    -0.726
##  2 TSCO  -0.677
##  3 GWW   -0.624
##  4 AZO   -0.614
##  5 GGP   -0.597
##  6 MAC   -0.592
##  7 LB    -0.576
##  8 AAP   -0.552
##  9 TGT   -0.550
## 10 MAT   -0.547
## #  with 476 more rows
…
